%YAML 1.1
%TAG !u! tag:unity3d.com,2011:
--- !u!114 &11400000
MonoBehaviour:
  m_ObjectHideFlags: 0
  m_CorrespondingSourceObject: {fileID: 0}
  m_PrefabInstance: {fileID: 0}
  m_PrefabAsset: {fileID: 0}
  m_GameObject: {fileID: 0}
  m_Enabled: 1
  m_EditorHideFlags: 0
  m_Script: {fileID: 11500000, guid: 957de65b2dcf42744a7ce9f1b66c45aa, type: 3}
  m_Name: D_MalePirate
  m_EditorClassIdentifier: 
  sentence:
    sprite: {fileID: 21300000, guid: 3bcfc6ca8accec74787be737a46c9e28, type: 3}
    audioClip: {fileID: 0}
    dText:
      source: MalePirate
      sourceName: 
      text: "For the flame!\r"
