%YAML 1.1
%TAG !u! tag:unity3d.com,2011:
--- !u!114 &11400000
MonoBehaviour:
  m_ObjectHideFlags: 0
  m_CorrespondingSourceObject: {fileID: 0}
  m_PrefabInstance: {fileID: 0}
  m_PrefabAsset: {fileID: 0}
  m_GameObject: {fileID: 0}
  m_Enabled: 1
  m_EditorHideFlags: 0
  m_Script: {fileID: 11500000, guid: 957de65b2dcf42744a7ce9f1b66c45aa, type: 3}
  m_Name: D_FemPirate 2
  m_EditorClassIdentifier: 
  sentence:
    sprite: {fileID: 21300000, guid: 55c18d3bba964304faeba40a2c7566e6, type: 3}
    audioClip: {fileID: 0}
    dText:
      source: FemPirate
      sourceName: 
      text: Lhazel. Bastion. Are the forces assembled?
